import React from 'react'
import ReactDom from 'react-dom'
import {message, Upload,Form,DatePicker,Select, Cascader,Timeline, Icon ,Card ,Avatar,Row,Col,Divider,Spin, Input,Tooltip,Button} from 'antd';
import DescriptionList from '../../components/DescriptionList';
import profile from '../../assets/profile.jpeg'
import styles from './index.less'
import { connect } from 'dva';
import { TransitionGroup, CSSTransition } from "react-transition-group";
import * as FontAwesome from 'react-icons/lib/fa'
import countryOptions from '../../common/counties.js'
import axios from 'axios';
import moment from 'moment';
const FormItem = Form.Item;
const { TextArea } = Input;
const Option = Select.Option;
const { Description } = DescriptionList;
const { Meta } = Card;
const gridStyle = {
    textAlign: 'center',
};
@connect(({ user,profile,loading }) => ({
    user,profile,
    loading: loading.effects['profile/fetchProfile'],
}))
class Profile extends React.Component {
    constructor(props){
        super(props)
        this.state = {
            isEditing: true,
            loading: false,
        };
    }

    editToggleEdit =() => {
        this.setState({isEditing: !this.state.isEditing})
    }
    saveToggleEdit =() => {
        this.setState({isEditing: !this.state.isEditing})
    }

    componentDidMount(){
		this.props.dispatch({
			type: 'profile/fetchProfile',
		})
	}

    render() {
        const {loading, profile } = this.props;
        const {avatar} = profile;
        const name = profile.name;
        const post = profile.Post;
        const ask = profile.Ask;
        const answer = profile.Answer;
        //console.log(avatar)
        return (
            <div style={{marginTop: '15px'}}>
            {loading ? [
                    <div style={{textAlign: 'center'}}>
                        <Spin size="large" />
                    </div>
            ]:[
                    <div>
                    <ProfileCardForm
                        editOnClick={this.saveToggleEdit}
                        saveOnClick={this.editToggleEdit}
                        avatar={avatar}
                        name={name} 
                        email="ncammg@gmail.com"
                        birthday= {new Date()}
                        gender="male"
                        country={['Asia', 'Burma']}
                        bio="I am a boy"
                        editable={this.state.isEditing}/>
                    <Card hoverable style={{ marginBottom: 10 }}>
                    <DescriptionList size="large" title="Activities" style={{ marginBottom: 32 }}>
                        <Description term="Post" style={{fontSize:'18px',fontWeight:'500px',fontFamily:'Roboto'}}>{post}</Description>
                        <Description term="Ask" style={{fontSize:'18px',fontWeight:'500px',fontFamily:'Roboto'}}>{ask}</Description>
                        <Description term="Answer" style={{fontSize:'18px',fontWeight:'500px',fontFamily:'Roboto'}}>{answer}</Description>
                    </DescriptionList>
                    </Card>


                    <Card title="Histories" hoverable>
                    <Timeline>
                        <Timeline.Item>Create a services site 2015-09-01</Timeline.Item>
                        <Timeline.Item>Solve initial network problems 2015-09-01</Timeline.Item>
                        <Timeline.Item dot={<Icon type="clock-circle-o" style={{ fontSize: '16px' }} />} color="red">Technical testing 2015-09-01</Timeline.Item>
                        <Timeline.Item>Network problems being solved 2015-09-01</Timeline.Item>
                    </Timeline>
                    </Card>
                    </div>
            ]}
            </div>
        )
    }
}

function mapStateToProps(state, ownProps) {
    return {
      loading: state.loading.global,
      profile: state.profile,
    };
  }

export default connect(mapStateToProps)(Profile);



function getBase64(img, callback) {
    const reader = new FileReader();
    reader.addEventListener('load', () => callback(reader.result));
    reader.readAsDataURL(img);
  }
  
  function beforeUpload(file) {
    const isJPG = file.type === 'image/jpeg';
    if (!isJPG) {
      message.error('You can only upload JPG file!');
    }
    const isLt2M = file.size / 1024 / 1024 < 2;
    if (!isLt2M) {
      message.error('Image must smaller than 2MB!');
    }
    return isJPG && isLt2M;
  }



class ProfileCard extends React.Component {
    constructor(props) {
        super(props);
        this.state = {
            loading: false,
            imgUrl : null,
        }

    }
    

    handleChange = (info) => {
        if (info.file.status === 'uploading') {
          this.setState({ loading: true });
          return;
        }
        if (info.file.status === 'done') {
          // Get this url from response in real world.
          getBase64(info.file.originFileObj, imageUrl => this.setState({
            imageUrl,
            loading: false,
          }));

         //console.log("imgurl",this.state.imageUrl)
        }
    }



    mapPropsToFields(props) {
        return {
            name: Form.createFormField({
            ...props.name,
            value: props.name.value,
          }),
        };
    }
      
    onChange = (value) =>{
        //console.log(value);
    }

    handleSubmit = (e) => {
        e.preventDefault();
        this.props.form.validateFields((err, values) => {
          if (!err) {
            //console.log('Received values of form: ', values);
           // console.log("date", values.birthday.toDate())
          }
    });
}
    render() {

        const uploadProps = {
            action: 'https://api.imgur.com/3/image',
            multiple: false,
            data: { a: 1, b: 2 },
            headers: {
              Authorization: 'Client-ID c2f926d5f0b58e1',
            },
            onStart(file) {
             // console.log('onStart', file, file.name);
            },
            onSuccess(ret, file) {
             // console.log('onSuccess', ret, file.name);
              this.setState({
                  imageUrl: ret.data.link,
              })
            },
            onError(err) {
              //console.log('onError', err);
            },
            onProgress({ percent }, file) {
             // console.log('onProgress', `${percent}%`, file.name);
            },
            customRequest({
              action,
              data,
              file,
              filename,
              headers,
              onError,
              onProgress,
              onSuccess,
              withCredentials,
            }) {
              // EXAMPLE: post form-data with 'axios'
              const formData = new FormData();
              if (data) {
                Object.keys(data).map(key => {
                  formData.append(key, data[key]);
                });
              }
              formData.append('image', file);
          
              axios
                .post(action, formData, {
                  withCredentials,
                  headers,
                  onUploadProgress: ({ total, loaded }) => {
                    onProgress({ percent: Math.round(loaded / total * 100).toFixed(2) }, file);
                  },
                })
                .then(({ data: response }) => {
                  onSuccess(response, file);
                })
                .catch(onError);
          
              return {
                abort() {
                 // console.log('upload progress is aborted.');
                },
              };
            },
        };


        const { getFieldDecorator } = this.props.form;
        const uploadButton = (
            <div>
              <Icon type={this.state.loading ? 'loading' : 'plus'} />
              <div className="ant-upload-text">Upload</div>
            </div>
          );
          const imageUrl = this.state.imageUrl;


        if(this.props.editable){
            return (
                <Card hoverable lg={12} sm={12} style={{marginBottom:'10px'}}>
                    <Row Row type="flex" justify="end">
                        <Col>
                            <Tooltip title="Edit Profile">
                                <Icon style={{fontSize:'20px'}} onClick={this.props.editOnClick} type="edit"/>
                            </Tooltip>
                        </Col>
                    </Row>
                    <Row type="flex" justify="center" align="top">
                        <Col>
                            <Upload {...uploadProps}>
                                <Avatar style={{width:'100px',height:'100px'}} src={this.props.avatar} />
                            </Upload>
                        </Col>
                    </Row>
                    <Row type="flex" justify="center" align="top">
                        <Col style={{textAlign: 'center'}}>
                            <div className={styles.displayDiv}>
                                <FontAwesome.FaUser className={styles.displayIconName}/>
                                <span className={styles.displayTextName}>
                                    {this.props.name}
                                </span>
                            </div>
                            <div className={styles.displayDiv}>
                                <FontAwesome.FaEnvelope className={styles.displayIcon} />
                                <span className={styles.displayText}>
                                    {this.props.email}
                                </span>
                            </div>
                            <div className={styles.displayDiv}>
                                <FontAwesome.FaCalendar className={styles.displayIcon} />
                                <span className={styles.displayText}>
                                    {this.props.birthday.toDateString()}
                                </span>
                            </div>
                            <div className={styles.displayDiv}>
                                <FontAwesome.FaTransgenderAlt className={styles.displayIcon} />
                                <span className={styles.displayText}>
                                    {this.props.gender}
                                </span>
                            </div>
                            <div className={styles.displayDiv}>
                                <FontAwesome.FaGlobe className={styles.displayIcon} />
                                <span className={styles.displayText}>
                                    {this.props.country}
                                </span>
                            </div>
                            <div className={styles.displayDiv}>
                                <FontAwesome.FaInfoCircle className={styles.displayIcon} />
                                <span className={styles.displayText}>
                                    {this.props.bio}
                                </span>
                            </div>
                        </Col>
                    </Row> 
                </Card >
            )
        }else{
            return (
                <Card hoverable lg={12} sm={12} style={{marginBottom:'10px'}}>
                <Form onSubmit={this.handleSubmit} className="login-form">
                    <FormItem>
                    <Row Row type="flex" justify="end">
                        <Col>
                            <Tooltip title="Save Profile">
                                <Button  htmlType="submit" className="login-form-button">
                                    <Icon style={{fontSize:'20px'}}  type="save" /> 
                                </Button>
                                
                            </Tooltip>
                        </Col>
                    </Row>
                    </FormItem>
                    <FormItem>
                    <Row type="flex" justify="center" align="top">
                        <Col>
                            <Avatar style={{width:'100px',height:'100px'}} src={this.props.avatar} />
                        </Col>
                    </Row>
                    </FormItem>
                    
                    <Row type="flex" justify="center" align="top">
                        <Col style={{textAlign: 'center'}}>
                            <FormItem>
                            {getFieldDecorator('name', {
                                    initialValue: this.props.name,
                                    rules: [{ required: true, message: 'Display Name is not empty!' }],
                                })(
                                <Input 
                                    maxlength="10"
                                    className={styles.displayTextNameEdit}
                                    placeholder="Display Name"/>
                            )}
                            </FormItem>
                            <FormItem>
                            {getFieldDecorator('email', {
                                    initialValue: this.props.email,
                                })(
                                <Input
                                    disabled
                                    size="35"
                                    className={styles.displayTextEdit}
                                    placeholder="Email" />
                                )}
                            </FormItem>
                            <FormItem>
                            {getFieldDecorator('birthday', {
                                    initialValue:moment(this.props.birthday, 'YYYY-MM-DD'),
                                })(
                                <DatePicker 
                                    className={styles.displayDateEdit}
                                    placeholder="Select Birth Date"/>
                                )}
                            </FormItem>
                            <FormItem>
                            {getFieldDecorator('gender', {
                                    initialValue: this.props.gender,
                                })(
                                <Select
                                    className={styles.displaySelectEdit}
                                    placeholder="Select Gender">
                                        <Option value="jack">Male</Option>
                                        <Option value="lucy">Female</Option>
                                    </Select>
                            )}
                            </FormItem>
                            <FormItem>
                            {getFieldDecorator('country', {
                                    initialValue: this.props.country,
                                })(
                            <Cascader
                                className={styles.displayCascaderEdit}
                                options={countryOptions}
                                placeholder="Please select Country" />
                                )}
                            </FormItem>
                            <FormItem>
                            {getFieldDecorator('bio', {
                                    initialValue: this.props.bio,
                                })(
                                <TextArea
                                    className={styles.displayTextAreaEdit} 
                                    placeholder="Bio"
                                    autosize={{ minRows: 2, maxRows: 6 }}  />
                                )}
                            </FormItem>
                        </Col>
                    </Row>
                </Form>
            </Card >
            )
        }


    }
}


const ProfileCardForm = Form.create()(ProfileCard);






























var user = {
    basicInfo: {
      name: "Jane Doe",
      gender: "Female",
      birthday: "April 3, 1990",
      location: "Los Angeles, CA",
      photo: profile,
      bio: "Lorem ipsum dolor sit amet, consectetur adipisicing elit. Quaerat fugit quia pariatur est saepe necessitatibus, quibusdam reiciendis ratione voluptate atque in qui provident rem repellat soluta. Blanditiis repellat velit eligendi."
    }
}
  
  
  class Avatara extends React.Component {
    render() {
      var image = this.props.image,
          style = {
            width: this.props.width || 50,
            height: this.props.height || 50
          }; 
      
      if (!image) return null;
      
      return (
       <div className="avatar" style={style}>
             <img src={this.props.image} /> 
        </div>
      );
    }
  }
  
  class MainPanel extends React.Component {
    render() {
      var info = this.props.info;
      if (!info) return null;
      
      return (
       <div>
          <div className="top">
              <Avatara 
                 image={info.photo} 
                 width={100}
                 height={100}
              /> 
              <h2 >{info.name}</h2>
              <h3>{info.location}</h3>
            
            <hr />
              <p>{info.gender} | {info.birthday}</p>
          </div>
          
          <div className="bottom">
            <h4>Biography</h4>
            <p>{info.bio}</p>
          </div>
        </div>
      );
    }
  }
  
  

//   <Row gutter={24}>
//   <Col xl={6} lg={8} md={24} sm={24} xs={24} style={{ marginBottom: 24 }}>
//   <Card hoverable style={gridStyle}
  
//   >
//       <img style={{width: '100%'}} alt="example" src="https://gw.alipayobjects.com/zos/rmsportal/JiqGstEfoWAOHiTxclqi.png" />
//       <h4>Nyein Chan Aung</h4>
//   </Card>                  
//   </Col>
//   <Col xl={18} lg={16} md={24} sm={24} xs={24} style={{ marginBottom: 24 }}>
//   <Card hoverable style={gridStyle} >
//   <DescriptionList size="large" title="User Info" style={{ marginBottom: 32 }}>
//   <Description term="Post">0</Description>
//   <Description term="Ask">0</Description>
//   <Description term="Answer">0</Description>
// </DescriptionList>
//   </Card>                    
//   </Col>

// </Row>