{
    "menu":[
        {
            "key":"/home",
            "name": "Home",
            "icon": "home",
            "path": "/home",
            "children": [
                {
                    "key":"/home/topic",
                    "name": "Topic",
                    "path": "/home/topic"
                },
                {
                    "key":"/home/ask",
                    "name": "Question",
                    "path": "/home/ask"
                },
                {
                    "key":"/home/review",
                    "name": "Reviews",
                    "path": "/home/review"
                }
            ]
        },
        {
            "key":"/news",
            "name": "News",
            "icon": "book",
            "path": "/news",
            "children": []
        },
        {
            "key":"/tags",
            "name": "Tags",
            "icon": "tag",
            "path": "/tags"
        },
        {
            "key":"/users",
            "name": "Users",
            "icon": "user",
            "path": "/users",
            "children": []
        },
        {
            "key":"/profile",
            "name": "Profile",
            "icon": "profile",
            "path": "/profile",
            "children": []
        },
        {
            "key":"/setting",
            "name": "Setting",
            "icon": "setting",
            "path": "/setting",
            "children": [
                {
                    "key":"61",
                    "name": "Change Password",
                    "path": "/chgpswd"
                }
            ]
        }
    ]
}